<?xml version="1.0" encoding="utf-8"?>
<!-- Generator: Adobe Illustrator 16.0.0, SVG Export Plug-In . SVG Version: 6.00 Build 0)  -->
<!DOCTYPE svg PUBLIC "-//W3C//DTD SVG 1.1//EN" "http://www.w3.org/Graphics/SVG/1.1/DTD/svg11.dtd">
<svg version="1.1" id="Capa_1" xmlns="http://www.w3.org/2000/svg" xmlns:xlink="http://www.w3.org/1999/xlink" x="0px" y="0px"
	 width="595.281px" height="841.891px" viewBox="0 0 595.281 841.891" enable-background="new 0 0 595.281 841.891"
	 xml:space="preserve">
<g>
	<g>
		<path fill="#777777" d="M594.996,592.984c1.262,9.663-1.684,18.065-8.822,25.207l-83.814,83.181
			c-3.781,4.201-8.717,7.775-14.809,10.713c-6.09,2.942-12.076,4.833-17.957,5.672c-0.42,0-1.684,0.108-3.785,0.318
			c-2.096,0.209-4.828,0.315-8.188,0.315c-7.984,0-20.904-1.365-38.76-4.097s-39.701-9.455-65.535-20.166
			c-25.842-10.713-55.145-26.784-87.914-48.209c-32.768-21.423-67.639-50.833-104.61-88.226
			c-29.408-28.988-53.775-56.716-73.101-83.183c-19.326-26.469-34.87-50.94-46.633-73.417
			c-11.765-22.477-20.587-42.853-26.469-61.128c-5.881-18.275-9.873-34.029-11.973-47.264c-2.101-13.233-2.941-23.632-2.521-31.193
			c0.42-7.563,0.63-11.764,0.63-12.604c0.84-5.882,2.73-11.869,5.671-17.961s6.512-11.028,10.713-14.809l83.814-83.814
			c5.882-5.882,12.604-8.822,20.166-8.822c5.462,0,10.293,1.575,14.494,4.727c4.202,3.15,7.772,7.036,10.713,11.658l67.429,127.927
			c3.781,6.722,4.832,14.074,3.151,22.056c-1.68,7.982-5.251,14.705-10.713,20.166l-30.879,30.879
			c-0.84,0.841-1.576,2.206-2.206,4.097c-0.63,1.891-0.945,3.466-0.945,4.726c1.681,8.823,5.461,18.906,11.343,30.249
			c5.042,10.083,12.813,22.371,23.317,36.865c10.503,14.495,25.417,31.193,44.743,50.099c18.905,19.328,35.71,34.346,50.415,45.061
			c14.701,10.709,26.994,18.589,36.865,23.631c9.873,5.041,17.436,8.087,22.686,9.135l7.877,1.576c0.84,0,2.207-0.316,4.096-0.945
			c1.891-0.631,3.256-1.365,4.098-2.207l35.92-36.55c7.566-6.722,16.385-10.082,26.469-10.082c7.143,0,12.813,1.259,17.014,3.781
			h0.629l121.623,71.84C588.064,577.651,593.314,584.582,594.996,592.984z"/>
	</g>
</g>
</svg>
